Data Manipulation Function by Form
…
#Convert the section to long formatting. 
#Parse Strings into numeric, survey, and measurement types.  
My_EDU01a <- EDU01a |>
  select("area_name" = Area_name, STCOU, ends_with("D")) |>
  pivot_longer(
      cols = ends_with("D"),
      names_to = "Item_ID",
      values_to = "Enrollment_Value") |>
  mutate(year = case_when(
      substr(Item_ID, 8, 9) > 24 ~ paste0("19", substr(Item_ID, 8,9)),  
      substr(Item_ID, 8, 9) <= 24 ~ paste0("20", substr(Item_ID, 8,9))),
      measure = substr(Item_ID, 4, 7))
My_EDU01a

# A tibble: 31,980 × 6
   area_name     STCOU Item_ID    Enrollment_Value year  measure
   <chr>         <int> <chr>                 <int> <chr> <chr>  
 1 UNITED STATES     0 EDU010187D         40024299 1987  0101   
 2 UNITED STATES     0 EDU010188D         39967624 1988  0101   
 3 UNITED STATES     0 EDU010189D         40317775 1989  0101   
 4 UNITED STATES     0 EDU010190D         40737600 1990  0101   
 5 UNITED STATES     0 EDU010191D         41385442 1991  0101   
 6 UNITED STATES     0 EDU010192D         42088151 1992  0101   
 7 UNITED STATES     0 EDU010193D         42724710 1993  0101   
 8 UNITED STATES     0 EDU010194D         43369917 1994  0101   
 9 UNITED STATES     0 EDU010195D         43993459 1995  0101   
10 UNITED STATES     0 EDU010196D         44715737 1996  0101   
# ℹ 31,970 more rows
…
