Data Manipulation Demonstration: Manual and Functional
…
      June 19, 2024

require(tidyverse)
require(rlang)
options(readr.show_col_types = FALSE)

The Census Bureau’s Statistical Compendia Program collected geographical-based educational data that we aim to make useful. However, this data requires wrangling first. This demonstration will include a step-by-step explanation of the manual approach to formatting a single dataset into a useful set of tibbles for analysis. Next, I will explain a function-based approach that combines many elements of the manual method, making it easier to upload, wrangle, combine, and analyze two or more datasets. Finally, I will demonstrate how to use all the explained code to transition from raw comma-separated values to rendered ggplots.

Data Processing – The Practicable Approach

#Read-in a comma-separated values dataset.
EDU01a <- read_csv("https://www4.stat.ncsu.edu/~online/datasets/EDU01a.csv")
EDU01a

# A tibble: 3,198 × 42
   Area_name     STCOU EDU010187F EDU010187D EDU010187N1 EDU010187N2 EDU010188F
   <chr>         <chr>      <dbl>      <dbl> <chr>       <chr>            <dbl>
 1 UNITED STATES 00000          0   40024299 0000        0000                 0
 2 ALABAMA       01000          0     733735 0000        0000                 0
 3 Autauga, AL   01001          0       6829 0000        0000                 0
 4 Baldwin, AL   01003          0      16417 0000        0000                 0
 5 Barbour, AL   01005          0       5071 0000        0000                 0
 6 Bibb, AL      01007          0       3557 0000        0000                 0
 7 Blount, AL    01009          0       7319 0000        0000                 0
 8 Bullock, AL   01011          0       2014 0000        0000                 0
 9 Butler, AL    01013          0       4640 0000        0000                 0
10 Calhoun, AL   01015          0      20939 0000        0000                 0
# ℹ 3,188 more rows
# ℹ 35 more variables: EDU010188D <dbl>, EDU010188N1 <chr>, EDU010188N2 <chr>,
#   EDU010189F <dbl>, EDU010189D <dbl>, EDU010189N1 <chr>, EDU010189N2 <chr>,
#   EDU010190F <dbl>, EDU010190D <dbl>, EDU010190N1 <chr>, EDU010190N2 <chr>,
#   EDU010191F <dbl>, EDU010191D <dbl>, EDU010191N1 <chr>, EDU010191N2 <chr>,
#   EDU010192F <dbl>, EDU010192D <dbl>, EDU010192N1 <chr>, EDU010192N2 <chr>,
#   EDU010193F <dbl>, EDU010193D <dbl>, EDU010193N1 <chr>, EDU010193N2 <chr>, …

We need data. The first order of business is to read a file into the R environment. A call to read_csv from the readr package and a URL pointing to a comma-separated value (CSV) file will produce our first dataset. For now, I assigned the data to an object using the original file name.

#Select specific columns of interest from the dataset.
My_EDU01a <- EDU01a |>
  select("area_name" = Area_name, STCOU, ends_with("D"))
My_EDU01a

# A tibble: 3,198 × 12
   area_name     STCOU EDU010187D EDU010188D EDU010189D EDU010190D EDU010191D
   <chr>         <chr>      <dbl>      <dbl>      <dbl>      <dbl>      <dbl>
 1 UNITED STATES 00000   40024299   39967624   40317775   40737600   41385442
 2 ALABAMA       01000     733735     728234     730048     728252     725541
 3 Autauga, AL   01001       6829       6900       6920       6847       7008
 4 Baldwin, AL   01003      16417      16465      16799      17054      17479
 5 Barbour, AL   01005       5071       5098       5068       5156       5173
 6 Bibb, AL      01007       3557       3508       3571       3621       3652
 7 Blount, AL    01009       7319       7223       7205       7209       7155
 8 Bullock, AL   01011       2014       1980       1985       1983       1985
 9 Butler, AL    01013       4640       4582       4610       4591       4544
10 Calhoun, AL   01015      20939      20923      20907      20849      20768
# ℹ 3,188 more rows
# ℹ 5 more variables: EDU010192D <dbl>, EDU010193D <dbl>, EDU010194D <dbl>,
#   EDU010195D <dbl>, EDU010196D <dbl>

Whenever I alter a dataset for the first time I rename the object indicating that the dataset I am now working with is not the original. Besides providing clarity on what the object is, renaming is also helpful for when a mistake is made. I do not have to read in the entire dataset again using a readr package. The original is already in the R environment so I simply overwrite the copy with the original and start over. With a new object named, a call to the select() function in the tidyverse narrows down the columns I am interested in. The Area_name column is lower-cased to area_name, STCOU remains unchanged, and I use the ends_with() function to select all columns with headers ending in the letter “D”.

#Convert the data to longer formatting. 
My_EDU01a <- My_EDU01a |>
  pivot_longer(
        cols = ends_with("D"),
        names_to = "Item_ID",
        values_to = "Enrollment_Value")
My_EDU01a

# A tibble: 31,980 × 4
   area_name     STCOU Item_ID    Enrollment_Value
   <chr>         <chr> <chr>                 <dbl>
 1 UNITED STATES 00000 EDU010187D         40024299
 2 UNITED STATES 00000 EDU010188D         39967624
 3 UNITED STATES 00000 EDU010189D         40317775
 4 UNITED STATES 00000 EDU010190D         40737600
 5 UNITED STATES 00000 EDU010191D         41385442
 6 UNITED STATES 00000 EDU010192D         42088151
 7 UNITED STATES 00000 EDU010193D         42724710
 8 UNITED STATES 00000 EDU010194D         43369917
 9 UNITED STATES 00000 EDU010195D         43993459
10 UNITED STATES 00000 EDU010196D         44715737
# ℹ 31,970 more rows

The data is in a wide format, making it difficult to read. A call to pivot_longer() collapses all of the columns ending in “D” into a single column called Item_ID. Values in this dataset are assigned to a new column header called Enrollment_Value.

#Parse Strings into year and measurement types.  
My_EDU01a <- My_EDU01a |>
  mutate(year = case_when(
        substr(Item_ID, 8, 9) > 24 ~ paste0("19", substr(Item_ID, 8,9)),  
        substr(Item_ID, 8, 9) <= 24 ~ paste0("20", substr(Item_ID, 8,9))),
        measure = substr(Item_ID, 1, 7))
My_EDU01a

# A tibble: 31,980 × 6
   area_name     STCOU Item_ID    Enrollment_Value year  measure
   <chr>         <chr> <chr>                 <dbl> <chr> <chr>  
 1 UNITED STATES 00000 EDU010187D         40024299 1987  EDU0101
 2 UNITED STATES 00000 EDU010188D         39967624 1988  EDU0101
 3 UNITED STATES 00000 EDU010189D         40317775 1989  EDU0101
 4 UNITED STATES 00000 EDU010190D         40737600 1990  EDU0101
 5 UNITED STATES 00000 EDU010191D         41385442 1991  EDU0101
 6 UNITED STATES 00000 EDU010192D         42088151 1992  EDU0101
 7 UNITED STATES 00000 EDU010193D         42724710 1993  EDU0101
 8 UNITED STATES 00000 EDU010194D         43369917 1994  EDU0101
 9 UNITED STATES 00000 EDU010195D         43993459 1995  EDU0101
10 UNITED STATES 00000 EDU010196D         44715737 1996  EDU0101
# ℹ 31,970 more rows
…
The creation of the new column ‘measure’ was straightforward using a simple substr() call and removing the first seven characters from the string. Our mutated data will keep the object name and the dataset altered earlier with filter() is used here with pipes instead of the original from the readr package, thus maintaining continuity.

#From the parameterized version of the EDU table, I have separated out the two tables by county and non-county. 
County.Data <- My_EDU01a |> filter(grepl(", [A-Z][A-Z]", area_name))
NonCounty.Data <- My_EDU01a |> filter(!grepl(", [A-Z][A-Z]", area_name))

#Add a classification that identifies the data we are working with.  We will lean on this later when combining data. 
class(County.Data) <- c("county", class(County.Data))
class(NonCounty.Data) <- c("state", class(NonCounty.Data))

County.Data

# A tibble: 31,450 × 6
   area_name   STCOU Item_ID    Enrollment_Value year  measure
   <chr>       <chr> <chr>                 <dbl> <chr> <chr>  
 1 Autauga, AL 01001 EDU010187D             6829 1987  EDU0101
 2 Autauga, AL 01001 EDU010188D             6900 1988  EDU0101
 3 Autauga, AL 01001 EDU010189D             6920 1989  EDU0101
 4 Autauga, AL 01001 EDU010190D             6847 1990  EDU0101
 5 Autauga, AL 01001 EDU010191D             7008 1991  EDU0101
 6 Autauga, AL 01001 EDU010192D             7137 1992  EDU0101
 7 Autauga, AL 01001 EDU010193D             7152 1993  EDU0101
 8 Autauga, AL 01001 EDU010194D             7381 1994  EDU0101
 9 Autauga, AL 01001 EDU010195D             7568 1995  EDU0101
10 Autauga, AL 01001 EDU010196D             7834 1996  EDU0101
# ℹ 31,440 more rows

NonCounty.Data

# A tibble: 530 × 6
   area_name     STCOU Item_ID    Enrollment_Value year  measure
   <chr>         <chr> <chr>                 <dbl> <chr> <chr>  
 1 UNITED STATES 00000 EDU010187D         40024299 1987  EDU0101
 2 UNITED STATES 00000 EDU010188D         39967624 1988  EDU0101
 3 UNITED STATES 00000 EDU010189D         40317775 1989  EDU0101
 4 UNITED STATES 00000 EDU010190D         40737600 1990  EDU0101
 5 UNITED STATES 00000 EDU010191D         41385442 1991  EDU0101
 6 UNITED STATES 00000 EDU010192D         42088151 1992  EDU0101
 7 UNITED STATES 00000 EDU010193D         42724710 1993  EDU0101
 8 UNITED STATES 00000 EDU010194D         43369917 1994  EDU0101
 9 UNITED STATES 00000 EDU010195D         43993459 1995  EDU0101
10 UNITED STATES 00000 EDU010196D         44715737 1996  EDU0101
# ℹ 520 more rows

There is more information to extract. Our datasets can be partitioned based on whether the area_name column contains a county-state abbreviation combination or just a state. Leveraging filter(), grepl(), specific string formatting criteria, and negation logic, the preceding code separates the data into County and NonCounty groupings.

A class is then assigned to the data. This is done because later on in the wrangling steps, both of these tibbles will be placed in a list, and we will want to set the class to “county” or “state” to accurately combine our tibbles based on their unique geographic profiles.

#Create a column in the County dataset that returns State.
County.Data <- County.Data |> mutate(state = substr(area_name, nchar(area_name) - 1, nchar(area_name)))
County.Data

# A tibble: 31,450 × 7
   area_name   STCOU Item_ID    Enrollment_Value year  measure state
   <chr>       <chr> <chr>                 <dbl> <chr> <chr>   <chr>
 1 Autauga, AL 01001 EDU010187D             6829 1987  EDU0101 AL   
 2 Autauga, AL 01001 EDU010188D             6900 1988  EDU0101 AL   
 3 Autauga, AL 01001 EDU010189D             6920 1989  EDU0101 AL   
 4 Autauga, AL 01001 EDU010190D             6847 1990  EDU0101 AL   
 5 Autauga, AL 01001 EDU010191D             7008 1991  EDU0101 AL   
 6 Autauga, AL 01001 EDU010192D             7137 1992  EDU0101 AL   
 7 Autauga, AL 01001 EDU010193D             7152 1993  EDU0101 AL   
 8 Autauga, AL 01001 EDU010194D             7381 1994  EDU0101 AL   
 9 Autauga, AL 01001 EDU010195D             7568 1995  EDU0101 AL   
10 Autauga, AL 01001 EDU010196D             7834 1996  EDU0101 AL   
# ℹ 31,440 more rows
…
NonCounty.Data <- NonCounty.Data |> mutate(division = case_when(
    area_name %in% c("CONNECTICUT","MAINE","MASSACHUSETTS","NEW HAMPSHIRE","RHODE ISLAND","VERMONT") ~ "New England",
    area_name %in% c("NEW JERSEY","NEW YORK","PENNSYLVANIA") ~ "Midwest",
    area_name %in% c("ILLINOIS","INDIANA","MICHIGAN","OHIO","WISCONSIN") ~ "East North Central",
    area_name %in% c("IOWA","KANSAS","MINNESOTA","MISSOURI","NEBRASKA","NORTH DAKOTA","SOUTH DAKOTA") ~ "West North Central",
    area_name %in% c("DELAWARE","FLORIDA","GEORGIA","MARYLAND","NORTH CAROLINA","SOUTH CAROLINA","VIRGINIA","WASHINGTON, D.C.","WEST VIRGINIA") ~ "South Atlantic",
    area_name %in% c("ALABAMA","KENTUCKY","MISSISSIPPI","TENNESSEE") ~ "East South Central",
    area_name %in% c("ARKANSAS","LOUISIANA","OKLAHOMA","TEXAS") ~ "West South Central",
    area_name %in% c("ARIZONA","COLORADO","IDAHO","MONTANA","NEVADA","NEW MEXICO","UTAH","WYOMING") ~ "Mountain",
    area_name %in% c("ALASKA","CALIFORNIA","HAWAII","OREGON","WASHINGTON") ~ "Pacific",
    TRUE ~ "ERROR"
))
NonCounty.Data

# A tibble: 530 × 7
   area_name     STCOU Item_ID    Enrollment_Value year  measure division
   <chr>         <chr> <chr>                 <dbl> <chr> <chr>   <chr>   
 1 UNITED STATES 00000 EDU010187D         40024299 1987  EDU0101 ERROR   
 2 UNITED STATES 00000 EDU010188D         39967624 1988  EDU0101 ERROR   
 3 UNITED STATES 00000 EDU010189D         40317775 1989  EDU0101 ERROR   
 4 UNITED STATES 00000 EDU010190D         40737600 1990  EDU0101 ERROR   
 5 UNITED STATES 00000 EDU010191D         41385442 1991  EDU0101 ERROR   
 6 UNITED STATES 00000 EDU010192D         42088151 1992  EDU0101 ERROR   
 7 UNITED STATES 00000 EDU010193D         42724710 1993  EDU0101 ERROR   
 8 UNITED STATES 00000 EDU010194D         43369917 1994  EDU0101 ERROR   
 9 UNITED STATES 00000 EDU010195D         43993459 1995  EDU0101 ERROR   
10 UNITED STATES 00000 EDU010196D         44715737 1996  EDU0101 ERROR   
# ℹ 520 more rows
…
This wrapper function is designed to “wrap” around all other functions, ensuring they run in the required order. User of the function will provide a URL argument and an Enrollment_Value input. The second input is default on the column labeled Enrollment_Value. The first part of this function checks if the loaded file is a comma-separated values file (CSV). With increased automation, I decided to add a stop call to prevent unnecessary errors. If the supplied link does not end in “.csv”, the function terminates and issues a warning. Assuming an acceptable link is provided, the called function automatically reads the CSV from the URL, applies each function in the specified order, and stores the resulting data as result.

#Call your data...  Test to see if the URLs produce the intended outcome. 
result_a <- Split_Data_Along_Geography("https://www4.stat.ncsu.edu/~online/datasets/EDU01a.csv", Enrollment_Value)
result_b <- Split_Data_Along_Geography("https://www4.stat.ncsu.edu/~online/datasets/EDU01b.csv", Enrollment_Value)
result_a; result_b;

$County_Data
# A tibble: 31,450 × 7
   area_name   STCOU Item_ID    Enrollment_Value year  measure state
   <chr>       <chr> <chr>                 <dbl> <chr> <chr>   <chr>
 1 Autauga, AL 01001 EDU010187D             6829 1987  EDU0101 AL   
 2 Autauga, AL 01001 EDU010188D             6900 1988  EDU0101 AL   
 3 Autauga, AL 01001 EDU010189D             6920 1989  EDU0101 AL   
 4 Autauga, AL 01001 EDU010190D             6847 1990  EDU0101 AL   
 5 Autauga, AL 01001 EDU010191D             7008 1991  EDU0101 AL   
 6 Autauga, AL 01001 EDU010192D             7137 1992  EDU0101 AL   
 7 Autauga, AL 01001 EDU010193D             7152 1993  EDU0101 AL   
 8 Autauga, AL 01001 EDU010194D             7381 1994  EDU0101 AL   
 9 Autauga, AL 01001 EDU010195D             7568 1995  EDU0101 AL   
10 Autauga, AL 01001 EDU010196D             7834 1996  EDU0101 AL   
# ℹ 31,440 more rows

$NonCounty_Data
# A tibble: 530 × 7
   area_name     STCOU Item_ID    Enrollment_Value year  measure division
   <chr>         <chr> <chr>                 <dbl> <chr> <chr>   <chr>   
 1 UNITED STATES 00000 EDU010187D         40024299 1987  EDU0101 ERROR   
 2 UNITED STATES 00000 EDU010188D         39967624 1988  EDU0101 ERROR   
 3 UNITED STATES 00000 EDU010189D         40317775 1989  EDU0101 ERROR   
 4 UNITED STATES 00000 EDU010190D         40737600 1990  EDU0101 ERROR   
 5 UNITED STATES 00000 EDU010191D         41385442 1991  EDU0101 ERROR   
 6 UNITED STATES 00000 EDU010192D         42088151 1992  EDU0101 ERROR   
 7 UNITED STATES 00000 EDU010193D         42724710 1993  EDU0101 ERROR   
 8 UNITED STATES 00000 EDU010194D         43369917 1994  EDU0101 ERROR   
 9 UNITED STATES 00000 EDU010195D         43993459 1995  EDU0101 ERROR   
10 UNITED STATES 00000 EDU010196D         44715737 1996  EDU0101 ERROR   
# ℹ 520 more rows

$County_Data
# A tibble: 31,450 × 7
   area_name   STCOU Item_ID    Enrollment_Value year  measure state
   <chr>       <chr> <chr>                 <dbl> <chr> <chr>   <chr>
 1 Autauga, AL 01001 EDU010197D             8099 1997  EDU0101 AL   
 2 Autauga, AL 01001 EDU010198D             8211 1998  EDU0101 AL   
 3 Autauga, AL 01001 EDU010199D             8489 1999  EDU0101 AL   
 4 Autauga, AL 01001 EDU010200D             8912 2000  EDU0102 AL   
 5 Autauga, AL 01001 EDU010201D             8626 2001  EDU0102 AL   
 6 Autauga, AL 01001 EDU010202D             8762 2002  EDU0102 AL   
 7 Autauga, AL 01001 EDU015203D             9105 2003  EDU0152 AL   
 8 Autauga, AL 01001 EDU015204D             9200 2004  EDU0152 AL   
 9 Autauga, AL 01001 EDU015205D             9559 2005  EDU0152 AL   
10 Autauga, AL 01001 EDU015206D             9652 2006  EDU0152 AL   
# ℹ 31,440 more rows

$NonCounty_Data
# A tibble: 530 × 7
   area_name     STCOU Item_ID    Enrollment_Value year  measure division
   <chr>         <chr> <chr>                 <dbl> <chr> <chr>   <chr>   
 1 UNITED STATES 00000 EDU010197D         44534459 1997  EDU0101 ERROR   
 2 UNITED STATES 00000 EDU010198D         46245814 1998  EDU0101 ERROR   
 3 UNITED STATES 00000 EDU010199D         46368903 1999  EDU0101 ERROR   
 4 UNITED STATES 00000 EDU010200D         46818690 2000  EDU0102 ERROR   
 5 UNITED STATES 00000 EDU010201D         47127066 2001  EDU0102 ERROR   
 6 UNITED STATES 00000 EDU010202D         47606570 2002  EDU0102 ERROR   
 7 UNITED STATES 00000 EDU015203D         48506317 2003  EDU0152 ERROR   
 8 UNITED STATES 00000 EDU015204D         48693287 2004  EDU0152 ERROR   
 9 UNITED STATES 00000 EDU015205D         48978555 2005  EDU0152 ERROR   
10 UNITED STATES 00000 EDU015206D         49140702 2006  EDU0152 ERROR   
# ℹ 520 more rows
…
  combined_county <- results %>%
    purrr::map(~ .x$County_Data) %>%
    purrr::reduce(dplyr::bind_rows)
  
  combined_NonCounty <- results %>%
    purrr::map(~ .x$NonCounty_Data) %>%
    purrr::reduce(dplyr::bind_rows)
  
  return(list(combined_county, combined_NonCounty))
}
combine_results(result_a, result_b)

[[1]]
# A tibble: 62,900 × 7
   area_name   STCOU Item_ID    Enrollment_Value year  measure state
   <chr>       <chr> <chr>                 <dbl> <chr> <chr>   <chr>
 1 Autauga, AL 01001 EDU010187D             6829 1987  EDU0101 AL   
 2 Autauga, AL 01001 EDU010188D             6900 1988  EDU0101 AL   
 3 Autauga, AL 01001 EDU010189D             6920 1989  EDU0101 AL   
 4 Autauga, AL 01001 EDU010190D             6847 1990  EDU0101 AL   
 5 Autauga, AL 01001 EDU010191D             7008 1991  EDU0101 AL   
 6 Autauga, AL 01001 EDU010192D             7137 1992  EDU0101 AL   
 7 Autauga, AL 01001 EDU010193D             7152 1993  EDU0101 AL   
 8 Autauga, AL 01001 EDU010194D             7381 1994  EDU0101 AL   
 9 Autauga, AL 01001 EDU010195D             7568 1995  EDU0101 AL   
10 Autauga, AL 01001 EDU010196D             7834 1996  EDU0101 AL   
# ℹ 62,890 more rows

[[2]]
# A tibble: 1,060 × 7
   area_name     STCOU Item_ID    Enrollment_Value year  measure division
   <chr>         <chr> <chr>                 <dbl> <chr> <chr>   <chr>   
 1 UNITED STATES 00000 EDU010187D         40024299 1987  EDU0101 ERROR   
 2 UNITED STATES 00000 EDU010188D         39967624 1988  EDU0101 ERROR   
 3 UNITED STATES 00000 EDU010189D         40317775 1989  EDU0101 ERROR   
 4 UNITED STATES 00000 EDU010190D         40737600 1990  EDU0101 ERROR   
 5 UNITED STATES 00000 EDU010191D         41385442 1991  EDU0101 ERROR   
 6 UNITED STATES 00000 EDU010192D         42088151 1992  EDU0101 ERROR   
 7 UNITED STATES 00000 EDU010193D         42724710 1993  EDU0101 ERROR   
 8 UNITED STATES 00000 EDU010194D         43369917 1994  EDU0101 ERROR   
 9 UNITED STATES 00000 EDU010195D         43993459 1995  EDU0101 ERROR   
10 UNITED STATES 00000 EDU010196D         44715737 1996  EDU0101 ERROR   
# ℹ 1,050 more rows
…
